{
  "total_commits": 57192,
  "distinct_members": 1980,
  "total_by_member": {
    "gitster@pobox.com": 16793,
    "l.s.r@web.de": 483,
    "jakob.j@gmail.com": 1,
    "bert.wesarg@googlemail.com": 59,
    "dev+git@drbeat.li": 35,
    "liu.denton@gmail.com": 96,
    "tanayabh@gmail.com": 32,
    "johannes.schindelin@gmx.de": 865,
    "peff@peff.net": 3261,
    "jonathantanmy@google.com": 207,
    "t.gummerer@gmail.com": 132,
    "garima.singh@microsoft.com": 3,
    "newren@gmail.com": 431,
    "e@80x24.org": 68,
    "Philip.McGraw@bentley.com": 1,
    "me@yadavpratyush.com": 11,
    "steadmon@google.com": 25,
    "tyagi.kunal@live.com": 1,
    "alexandr.miloslavskiy@syntevo.com": 4,
    "alexhenrie24@gmail.com": 45,
    "auselen@gmail.com": 1,
    "emilyshaffer@google.com": 9,
    "martin.agren@gmail.com": 140,
    "tklauser@distanz.ch": 13,
    "szeder.dev@gmail.com": 286,
    "cbailey32@bloomberg.net": 20,
    "pedroteosousa@gmail.com": 1,
    "ahippo@yandex.com": 1,
    "ischis2@cox.net": 22,
    "herveberaud.pro@gmail.com": 1,
    "clement.chigot@atos.net": 3,
    "j6t@kdbg.org": 299,
    "masayasuzuki@google.com": 9,
    "jon@jonsimons.org": 3,
    "sandals@crustytoothpaste.net": 555,
    "birger.sp@gmail.com": 2,
    "gabriele.mzt@gmail.com": 2,
    "pabs3@bonedaddy.net": 1,
    "imyanke@163.com": 1,
    "max.r.rothman@gmail.com": 1,
    "cam.steffen94@gmail.com": 1,
    "carenas@gmail.com": 23,
    "me@ttaylorr.com": 35,
    "ben@wijen.net": 4,
    "dstolee@microsoft.com": 212,
    "dturner@twosigma.com": 12,
    "paulus@ozlabs.org": 3,
    "avarab@gmail.com": 667,
    "mh@glandium.org": 71,
    "adam@roben.org": 1,
    "tboegi@web.de": 110,
    "git@shiar.nl": 2,
    "sboyd@kernel.org": 3,
    "bpmilman@gmail.com": 1,
    "phillip.wood@dunelm.org.uk": 116,
    "corentin.bompard@etu.univ-lyon1.fr": 3,
    "worldhello.net@gmail.com": 417,
    "matthias.ruester@gmail.com": 6,
    "mark.rushakoff@gmail.com": 2,
    "philipoakley@iee.email": 1,
    "alessandro.menti@alessandromenti.it": 5,
    "vnwildman@gmail.com": 69,
    "chrisadr@gentoo.org": 17,
    "jn.avila@free.fr": 69,
    "ash@kambanaria.org": 47,
    "jeffhost@microsoft.com": 105,
    "jrnieder@gmail.com": 789,
    "git@drmicha.warpmail.net": 279,
    "git@grubix.eu": 15,
    "wchargin@gmail.com": 3,
    "jmas@softcatala.org": 21,
    "vcnaik94@gmail.com": 3,
    "16657101987@163.com": 1,
    "peter@softwolves.pp.se": 88,
    "matheus.bernardino@usp.br": 9,
    "philipoakley@iee.org": 71,
    "doug.ilijev@gmail.com": 1,
    "fenderq@gmail.com": 1,
    "ariadne@dereferenced.org": 3,
    "mail@philipp-weissmann.de": 1,
    "robert.thomas.morgan@gmail.com": 1,
    "ramsay@ramsayjones.plus.com": 54,
    "bnmvco@gmail.com": 1,
    "eantoranz@gmail.com": 3,
    "blees@dcon.de": 47,
    "dimitriy.ryazantcev@gmail.com": 24,
    "quentin.nerden@intel.com": 2,
    "rohit.ashiwal265@gmail.com": 8,
    "michael@platin.gs": 2,
    "christian.couder@gmail.com": 217,
    "carmine@carminezacc.com": 1,
    "pclouds@gmail.com": 1824,
    "matvore@google.com": 38,
    "cesarb@cesarb.net": 3,
    "moriansonnet@gmail.com": 1,
    "jwilk@jwilk.net": 1,
    "johnlinp@gmail.com": 1,
    "brho@google.com": 8,
    "michael.osipov@siemens.com": 1,
    "c.malard-git@valdun.net": 1,
    "ralf.thielow@gmail.com": 123,
    "tigran.mkrtchyan@desy.de": 1,
    "me@fangyi.io": 1,
    "miguel.ojeda.sandonis@gmail.com": 1,
    "admin@in-ici.net": 1,
    "felipe.contreras@gmail.com": 420,
    "tmz@pobox.com": 49,
    "aklhfex@gmail.com": 2,
    "delphij@google.com": 1,
    "liboxuan@connect.hku.hk": 3,
    "mike.mueller@moodys.com": 1,
    "pbonzini@redhat.com": 10,
    "vishal@stellar.sh": 1,
    "simon@no-dns-yet.org.uk": 1,
    "stolee@gmail.com": 35,
    "bavison@riscosopen.org": 1,
    "mlureau@redhat.com": 1,
    "sunshine@sunshineco.com": 272,
    "ismail@i10z.com": 2,
    "chris@webstech.net": 1,
    "asheiduk@gmail.com": 31,
    "tanushreetumane@gmail.com": 1,
    "dustin@virtualroadside.com": 1,
    "nbelakovski@gmail.com": 5,
    "vadim4j@gmail.com": 1,
    "damien.olivier.robert+git@gmail.com": 1,
    "kyle@kyleam.com": 23,
    "email@cs-ware.de": 3,
    "baruch@tkos.co.il": 1,
    "davvid@gmail.com": 179,
    "dak@gnu.org": 31,
    "amazo@checkvideo.com": 8,
    "alexander+git@blesius.eu": 1,
    "rybak.a.v@gmail.com": 4,
    "msuchanek@suse.de": 1,
    "brandon1024.br@gmail.com": 2,
    "id@joeyh.name": 1,
    "ungureanupaulsebastian@gmail.com": 19,
    "joel@teichroeb.net": 8,
    "mkraai@its.jnj.com": 1,
    "rpjday@crashcourse.ca": 16,
    "ybhatambare@gmail.com": 1,
    "alban.gruin@gmail.com": 44,
    "yoichi.nakayama@gmail.com": 1,
    "fangyi.zhou@yuriko.moe": 3,
    "max@max630.net": 38,
    "koraktor@gmail.com": 7,
    "vyruss@hellug.gr": 2,
    "fabien.villepinte@cdbdx.biz": 2,
    "benpeart@microsoft.com": 42,
    "emilio@crisal.io": 1,
    "rsbecker@nexbridge.com": 8,
    "me@ikke.info": 9,
    "katrin.leinweber@uni-konstanz.de": 1,
    "luke@diamand.org": 70,
    "zhiyou.jx@alibaba-inc.com": 4,
    "sunchao9@huawei.com": 2,
    "svenvh@gmail.com": 2,
    "williamh@gentoo.org": 1,
    "shahzadlone@gmail.com": 1,
    "anders@0x63.nu": 8,
    "phogg@novamoon.net": 2,
    "arti.zirk@gmail.com": 1,
    "sbeller@google.com": 579,
    "novalis@novalis.org": 3,
    "torvalds@linux-foundation.org": 259,
    "kgybels@infogroep.be": 3,
    "issactrotts@google.com": 1,
    "labbott@redhat.com": 1,
    "peterosterlund2@gmail.com": 1,
    "git@matthieu-moy.fr": 5,
    "sorganov@gmail.com": 8,
    "randall.becker@nexbridge.ca": 5,
    "yousbe@gmail.com": 3,
    "eedahlgren@gmail.com": 1,
    "orgads@gmail.com": 6,
    "pranit.bauva@gmail.com": 28,
    "olyatelezhnaya@gmail.com": 25,
    "thomas.braun@virtuell-zuhause.de": 11,
    "linusboyle@gmail.com": 1,
    "denis@ovsienko.info": 1,
    "ferdnyc@gmail.com": 1,
    "bwilliamseng@gmail.com": 1,
    "greg@hurrell.net": 1,
    "slavicadj.ip2018@gmail.com": 1,
    "congdanhqx@gmail.com": 1,
    "loorongjie@gmail.com": 1,
    "rafa.almas@gmail.com": 3,
    "charlieio@outlook.com": 1,
    "shoelzer@gmail.com": 5,
    "mgorny@gentoo.org": 8,
    "james.d.knight@live.com": 1,
    "aaron@aclindsay.com": 1,
    "mxn@1ec5.org": 1,
    "agruenba@redhat.com": 1,
    "ao2@ao2.it": 17,
    "github@brendanforster.com": 1,
    "daniels@umanovskis.se": 4,
    "lucas.demarchi@intel.com": 1,
    "uwe@kleine-koenig.org": 1,
    "aserbulov@plesk.com": 1,
    "jpewhacker@gmail.com": 1,
    "s4uliu5@gmail.com": 1,
    "taoqy@ls-a.me": 3,
    "mail@eworm.de": 8,
    "rv@rasmusvillemoes.dk": 12,
    "rstrain@swri.org": 1,
    "npostavs@users.sourceforge.net": 2,
    "predatoramigo@gmail.com": 47,
    "mihir@cs.utexas.edu": 1,
    "mfwitten@gmail.com": 14,
    "steve@lonetwin.net": 1,
    "roger.strain@swri.org": 4,
    "apyhalov@gmail.com": 1,
    "sammck@gmail.com": 1,
    "dmrz@illinois.edu": 1,
    "frederik@ofb.net": 3,
    "timschumi@gmx.de": 4,
    "m.shulhan@gmail.com": 1,
    "bmwill@google.com": 377,
    "hertzog@debian.org": 1,
    "jannh@google.com": 2,
    "gitter.spiros@gmail.com": 194,
    "Ben.Peart@microsoft.com": 9,
    "samuel.maftoul@gmail.com": 1,
    "guriev-ns@ya.ru": 1,
    "tr@thomasrast.ch": 14,
    "hanwen@google.com": 39,
    "skisela@redhat.com": 2,
    "chenbin.sh@gmail.com": 1,
    "draftcode@gmail.com": 1,
    "peartben@gmail.com": 11,
    "henning.schild@siemens.com": 9,
    "jules.maselbas@grenoble-inp.org": 1,
    "aaron@schrab.com": 7,
    "dev@whileimautomaton.net": 2,
    "aleksandr.o.makarov@gmail.com": 1,
    "jamill@microsoft.com": 16,
    "marc.strapetz@syntevo.com": 1,
    "vparfinenko@excelsior-usa.com": 1,
    "michael.barabanov@gmail.com": 1,
    "asedeno@mit.edu": 4,
    "ville.skytta@iki.fi": 6,
    "xiaolong.ye@intel.com": 5,
    "tir.karthi@gmail.com": 1,
    "cwryu@debian.org": 16,
    "kaartic.sivaraam@gmail.com": 17,
    "luis.marsano@gmail.com": 4,
    "istephens@atlassian.com": 2,
    "mengsungwu@fortunewhite.org": 1,
    "kirr@nexedi.com": 4,
    "lintonrjeremy@gmail.com": 1,
    "merlorom@yahoo.fr": 1,
    "Leif.Middelschulte@gmail.com": 2,
    "asottile@umich.edu": 3,
    "l.stelmach@samsung.com": 2,
    "palvarez89@gmail.com": 1,
    "dturner@twopensource.com": 68,
    "kcghost@gmail.com": 3,
    "pc44800@gmail.com": 11,
    "mail@floga.de": 1,
    "eckhard.s.maass@googlemail.com": 1,
    "sir@cmpwn.com": 1,
    "stefanbeller@gmail.com": 17,
    "ryandammrose@gmail.com": 1,
    "stefan@agner.ch": 2,
    "845767657@qq.com": 1,
    "larsxschneider@gmail.com": 110,
    "andre.hinrichs@gmx.de": 2,
    "dnj@google.com": 3,
    "drizzd@gmx.net": 2,
    "mail@lucaswerkmeister.de": 2,
    "haraldnordgren@gmail.com": 1,
    "mina86@mina86.com": 8,
    "andersk@mit.edu": 6,
    "Bill_Ritcher@guiffy.com": 1,
    "brady@cisco.com": 1,
    "logan@hackers.mu": 1,
    "oldsharp@gmail.com": 17,
    "orga.chem.job@gmail.com": 1,
    "wink@saville.com": 8,
    "michele@locati.it": 2,
    "dpursehouse@collab.net": 2,
    "tikuta@chromium.org": 1,
    "thomas.levesque@gmail.com": 1,
    "chrissicool@gmail.com": 2,
    "birgersp@gmail.com": 1,
    "kilobyte@angband.pl": 1,
    "marten.kongstad@gmail.com": 3,
    "bwiedemann@suse.de": 1,
    "srguglielmo@gmail.com": 1,
    "marmot.motoki@gmail.com": 1,
    "sky@genki.is": 2,
    "tatyana@synopsys.com": 1,
    "gregory.herrero@oracle.com": 1,
    "nmoreychaisemartin@suse.com": 1,
    "stefanmoch@mail.de": 2,
    "patryk.obara@gmail.com": 24,
    "mhagger@alum.mit.edu": 954,
    "jcodagnone@gmail.com": 1,
    "gs051095@gmail.com": 1,
    "m@git.strova.dk": 1,
    "chrissicool@googlemail.com": 1,
    "Johannes.Schindelin@gmx.de": 651,
    "andreas.schacker@gmail.com": 1,
    "yasushi.shoji@gmail.com": 1,
    "alex.bennee@linaro.org": 1,
    "louis@bettens.info": 1,
    "knittl89+git@googlemail.com": 3,
    "julien.dusser@free.fr": 1,
    "dborowitz@google.com": 15,
    "wsy@dogben.com": 2,
    "simon@ruderich.org": 14,
    "NMoreyChaisemartin@suse.com": 1,
    "nathan.payre@etu.univ-lyon1.fr": 2,
    "hji@dyntopia.com": 2,
    "jacob.keller@gmail.com": 42,
    "daniel.bensoussan--bohm@etu.univ-lyon1.fr": 1,
    "rabel@robertabel.eu": 3,
    "gkupava@bloomberg.net": 2,
    "bedhanger@gmx.de": 8,
    "liambeguin@gmail.com": 12,
    "flokli@flokli.de": 1,
    "prohaska@zib.de": 74,
    "phil.hord@gmail.com": 6,
    "albert.astals.cid@kdab.com": 1,
    "hsed@unimetic.com": 1,
    "s-beyer@gmx.net": 62,
    "adam@dinwoodie.org": 8,
    "alexmv@dropbox.com": 7,
    "anarcat@debian.org": 6,
    "jwyman@microsoft.com": 1,
    "grumbel@gmail.com": 1,
    "kevin@ki-ai.org": 1,
    "contato@jeancarlomachado.com.br": 1,
    "dennis@kaarsemaker.net": 12,
    "cmn@dwim.me": 4,
    "kuba@berezanscy.pl": 2,
    "a.okoshkin@samsung.com": 4,
    "sschuberth@gmail.com": 51,
    "casta@xwing.info": 1,
    "marius.paliga@gmail.com": 1,
    "nicolac76@yahoo.fr": 1,
    "jean-noel.avila@scantech.fr": 2,
    "glasser@davidglasser.net": 2,
    "hvoigt@hvoigt.net": 77,
    "wking@tremily.us": 37,
    "damien@dam.io": 1,
    "christopher.diaz.riv@gmail.com": 3,
    "kaarticsivaraam91196@gmail.com": 24,
    "e@nanocritical.com": 1,
    "mnvrth@gmail.com": 1,
    "drafnel@gmail.com": 190,
    "chriscool@tuxfamily.org": 358,
    "iliakan@gmail.com": 1,
    "ijc@hellion.org.uk": 4,
    "oystwa@gmail.com": 4,
    "jason@redhat.com": 3,
    "nicolas@morey-chaisemartin.com": 7,
    "zackse@gmail.com": 1,
    "joernchen@phenoelit.de": 1,
    "rkabus@aerotech.com": 1,
    "kewillf@microsoft.com": 15,
    "mathstuf@gmail.com": 2,
    "daniel@daniel-watkins.co.uk": 1,
    "job@instituut.net": 1,
    "tiwai@suse.de": 6,
    "martin.koegler@chello.at": 2,
    "tgc@jupiterrise.com": 2,
    "urs@isnogud.escape.de": 1,
    "mforney@mforney.org": 1,
    "henkel@vh-s.de": 1,
    "junio@pobox.com": 5,
    "eblake@redhat.com": 2,
    "sylvestre@debian.org": 1,
    "spalax@gresille.org": 1,
    "hugues.peccatte@aareon.fr": 1,
    "rocketraman@gmail.com": 1,
    "lukaszgryglicki@o2.pl": 1,
    "dimitrios@christidis.me": 1,
    "santiago@nyu.edu": 11,
    "hcb@unco.de": 1,
    "william.duclot@gmail.com": 1,
    "miguel.torroja@gmail.com": 4,
    "zxq_yx_007@163.com": 1,
    "AWilcox@Wilcox-Tech.com": 1,
    "jrtc27@jrtc27.com": 1,
    "emilyxxie@gmail.com": 2,
    "marcnarc@xiplink.com": 23,
    "sahildua2305@gmail.com": 4,
    "stepnem@gmail.com": 6,
    "ps@pks.im": 36,
    "mackyle@gmail.com": 33,
    "rikard.falkeborn@gmail.com": 7,
    "tyler@tylerbrazier.com": 1,
    "whydoubt@gmail.com": 29,
    "sxlijin@gmail.com": 6,
    "bmalehorn@gmail.com": 1,
    "vascomalmeida@sapo.pt": 122,
    "liebundartig@freenet.de": 3,
    "smkent@smkent.net": 1,
    "sdh@google.com": 1,
    "giuseppe.bilotta@gmail.com": 94,
    "ryazanov.s.a@gmail.com": 2,
    "quentin.pradet@gmail.com": 1,
    "mostyn@antipode.se": 1,
    "patthoyts@users.sourceforge.net": 115,
    "lehmacdj@gmail.com": 3,
    "me@vtolstov.org": 1,
    "h.shirosaki@gmail.com": 1,
    "vegard.nossum@oracle.com": 4,
    "djpohly@gmail.com": 4,
    "allan.x.xavier@oracle.com": 1,
    "matt@mattmccutchen.net": 16,
    "patrick.steinhardt@elego.de": 8,
    "johan@kernel.org": 1,
    "rosslagerwall@gmail.com": 4,
    "dregad@mantisbt.org": 1,
    "gregoire.paris.greg0ire@gmail.com": 1,
    "rappazzo@gmail.com": 9,
    "franchesko.salias.hudro.pedros@gmail.com": 2,
    "cornelius.weig@tngtech.com": 15,
    "n.oxyde@gmail.com": 2,
    "joachim.jablon@people-doc.com": 1,
    "ewjoachim@gmail.com": 1,
    "segev208@gmail.com": 2,
    "karthik.188@gmail.com": 82,
    "PeterJCLaw@gmail.com": 1,
    "gvanburgh@bloomberg.net": 2,
    "git@thecybershadow.net": 5,
    "luk.puehringer@gmail.com": 3,
    "hansenr@google.com": 16,
    "wsa@the-dreams.de": 1,
    "nalla@hamal.uberspace.de": 2,
    "svnpenn@gmail.com": 2,
    "igorkuo@gmail.com": 1,
    "alan.n.davies@gmail.com": 1,
    "judge.packham@gmail.com": 13,
    "aranea@aixah.de": 1,
    "vi0oss@gmail.com": 2,
    "mah@jump-ing.de": 3,
    "s.yasushima@gmail.com": 7,
    "stefandotterweich@gmx.de": 1,
    "goossens.rogier@gmail.com": 3,
    "kristoffer.haugsbakk@gmail.com": 4,
    "a.krey@gmx.de": 2,
    "bk874k@nottheoilrig.com": 1,
    "viniciusalexandre@gmail.com": 1,
    "ben@redfrontdoor.org": 2,
    "schwab@suse.de": 2,
    "jfbu@free.fr": 1,
    "contact@stefanchrist.eu": 1,
    "github@mirality.co.nz": 1,
    "watsona4@gmail.com": 1,
    "Matthieu.Moy@imag.fr": 282,
    "younes.khoudli@gmail.com": 1,
    "grawity@gmail.com": 1,
    "jnareb@gmail.com": 512,
    "alexander.riesen@cetitec.com": 2,
    "yaras6@gmail.com": 1,
    "szeder@ira.uka.de": 163,
    "pstodulk@redhat.com": 1,
    "ian@iankelling.org": 2,
    "josh@joshtriplett.org": 10,
    "mike.ralphson@gmail.com": 1,
    "sahlberg@google.com": 77,
    "henderson.bj@gmail.com": 3,
    "john@keeping.me.uk": 154,
    "mstahl@redhat.com": 1,
    "joeyh@joeyh.name": 1,
    "ib@wupperonline.de": 3,
    "a.brauchli@elementarea.net": 1,
    "parkrmoore@gmail.com": 2,
    "rdwampler@gmail.com": 2,
    "nico@fluxnic.net": 31,
    "megabreit@googlemail.com": 4,
    "clayne@anodized.com": 1,
    "charles@hashpling.org": 29,
    "lfleischer@lfos.de": 8,
    "git-dpa@aegee.org": 2,
    "greened@obbligato.org": 17,
    "mehul.jain2029@gmail.com": 12,
    "aoakley@roku.com": 1,
    "cuong.manhle.vn@gmail.com": 1,
    "emaste@freebsd.org": 1,
    "david.nicolson@gmail.com": 1,
    "josef@kufner.cz": 1,
    "alfred@freebsd.org": 2,
    "heirecka@exherbo.org": 1,
    "kmcguigan@twopensource.com": 1,
    "peter@colberg.org": 2,
    "lars.vogel@gmail.com": 2,
    "tom.russello@grenoble-inp.org": 4,
    "ethomson@edwardthomson.com": 3,
    "william.duclot@ensimag.grenoble-inp.fr": 1,
    "jordan.de-gea@grenoble-inp.org": 1,
    "erwan.mathoniere@grenoble-inp.org": 1,
    "antoine.queru@grenoble-inp.org": 1,
    "b.dopplinger@gmail.com": 1,
    "scorphus@gmail.com": 1,
    "1zeeky@gmail.com": 1,
    "alex@fournova.com": 1,
    "kellerfuchs@hashbang.sh": 1,
    "normalperson@yhbt.net": 502,
    "lip@dtdream.com": 1,
    "computersforpeace@gmail.com": 4,
    "shin@kojima.org": 1,
    "rene.nyffenegger@adp-gmbh.ch": 1,
    "antonin@delpeuch.eu": 1,
    "nforro@redhat.com": 1,
    "ben.woosley@gmail.com": 1,
    "jan.durovec@gmail.com": 2,
    "orgad.shaneh@audiocodes.com": 1,
    "k@rhe.jp": 10,
    "jacob.nisnevich@gmail.com": 2,
    "redneb@gmx.com": 2,
    "stanislav@assembla.com": 1,
    "sven@cs-ware.de": 4,
    "ori@avtalion.name": 4,
    "zhanglei002@gmail.com": 1,
    "kuleshovmail@gmail.com": 16,
    "laurent@spkdev.net": 1,
    "gsromero@infernal-iceberg.com": 2,
    "lars.schneider@autodesk.com": 1,
    "vleschuk@gmail.com": 4,
    "gabrielfrancosouza@gmail.com": 2,
    "christophhoopmann@gmail.com": 1,
    "th.acker@arcor.de": 37,
    "tigerkid001@gmail.com": 2,
    "sauravsachidanand@gmail.com": 1,
    "xin.jiang@huawei.com": 1,
    "storm@chemicalstorm.org": 2,
    "michael@procter.org.uk": 1,
    "martin.amdisen@praqma.com": 1,
    "felipeg.assis@gmail.com": 7,
    "jon_p_griffiths@yahoo.com": 3,
    "k_satoda@f2.dion.ne.jp": 2,
    "obliviscence@gmail.com": 1,
    "christoph@christoph-egger.org": 1,
    "spearce@spearce.org": 1401,
    "dicksonwong@gmail.com": 1,
    "alonid@gmail.com": 1,
    "awheeler@motorola.com": 1,
    "wmpalmer@gmail.com": 10,
    "k.franke@science-computing.de": 4,
    "paul@kungfoocoder.org": 2,
    "matt.kraai@abbott.com": 1,
    "davidw@realtimegenomics.com": 1,
    "romain.picard@oakbits.com": 1,
    "sunny@sunbase.org": 4,
    "dwheeler@dwheeler.com": 1,
    "sam@hocevar.net": 2,
    "paulus@samba.org": 330,
    "bafain@gmail.com": 4,
    "stefan.naewe@gmail.com": 7,
    "mac@mcrowe.com": 4,
    "mayoff@dqd.com": 1,
    "egirard@murex.com": 1,
    "knittl89@googlemail.com": 2,
    "clemens.buchacher@intel.com": 3,
    "fredrik.medley@gmail.com": 4,
    "techlivezheng@gmail.com": 8,
    "yokota@netlab.cs.tsukuba.ac.jp": 16,
    "dair@feralinteractive.com": 1,
    "git@canavan.de": 1,
    "fabio.porcedda@gmail.com": 1,
    "apahlevan@ieee.org": 2,
    "dougk.ff7@gmail.com": 4,
    "elie@bouttier.eu": 1,
    "w.maleska@gmail.com": 1,
    "xfq.free@gmail.com": 2,
    "raa.lkml@gmail.com": 205,
    "repk@triplefau.lt": 3,
    "vega.james@gmail.com": 1,
    "mingw.android@gmail.com": 1,
    "ericvw@gmail.com": 1,
    "nepella@gmail.com": 1,
    "bburky@bburky.com": 2,
    "gabor.bernat@gravityrd.com": 1,
    "phillip.szelat@gmail.com": 5,
    "ethomson@microsoft.com": 1,
    "schwab@linux-m68k.org": 11,
    "alex.crezoff@gmail.com": 12,
    "matthieuprat@gmail.com": 1,
    "juerg.haefliger@hp.com": 1,
    "namhyung@gmail.com": 6,
    "erik.elfstrom@gmail.com": 6,
    "jfmcjf@gmail.com": 1,
    "javabrett@gmail.com": 1,
    "pyokagan@gmail.com": 117,
    "viktorin@rehivetech.com": 1,
    "gjthill@gmail.com": 3,
    "remi.lespinet@ensimag.grenoble-inp.fr": 14,
    "antoine.delaite@ensimag.grenoble-inp.fr": 4,
    "bmd@bmdhacks.com": 1,
    "zoe@bytenoise.co.uk": 1,
    "ilya.bobyr@gmail.com": 6,
    "simon.eugster@eps.ch": 1,
    "guillaume.pages@ensimag.grenoble-inp.fr": 4,
    "karsten.blees@gmail.com": 65,
    "lawrencesiebert@gmail.com": 1,
    "remi.galan-alfonso@ensimag.grenoble-inp.fr": 3,
    "Enrique.Tobis@twosigma.com": 1,
    "chneukirchen@gmail.com": 1,
    "rhansen@bbn.com": 27,
    "adgar@google.com": 1,
    "pastith@gmail.com": 1,
    "joe.cridge@me.com": 1,
    "fransklaver@gmail.com": 1,
    "github.2009@yendor.com": 1,
    "quentin.neill@gmail.com": 1,
    "allenbh@gmail.com": 1,
    "sebastien.guimmara@gmail.com": 4,
    "michael.karl.coleman@gmail.com": 1,
    "ismael@iodev.co.uk": 1,
    "danny0838@gmail.com": 3,
    "lars@redhat.com": 1,
    "olaf@aepfle.de": 1,
    "hordp@cisco.com": 15,
    "ramsay@ramsay1.demon.co.uk": 165,
    "iveqy@iveqy.com": 11,
    "vitor.hda@gmail.com": 22,
    "lex@lexspoon.org": 1,
    "oherrala@gmail.com": 1,
    "cmn@elego.de": 33,
    "luke@mewburn.net": 1,
    "juliangindi@gmail.com": 1,
    "marcio.web2@gmail.com": 1,
    "blair_holloway@playstation.sony.com": 1,
    "thosch97@gmail.com": 1,
    "git-patch@agt-the-walker.net": 1,
    "ivan.ukhov@gmail.com": 1,
    "dot@dotat.at": 11,
    "wimschuermann@googlemail.com": 1,
    "dongcan.jiang@gmail.com": 1,
    "codemister99@yahoo.com": 1,
    "ottxor@gentoo.org": 2,
    "john@szakmeister.net": 6,
    "cxreg@pobox.com": 4,
    "remirampin@gmail.com": 2,
    "sojkam1@fel.cvut.cz": 6,
    "bdwalton@gmail.com": 13,
    "ryu1kkb@gmail.com": 1,
    "mikko.rapeli@iki.fi": 1,
    "aleksander.boruchgruszecki@gmail.com": 1,
    "me@jonathonmah.com": 1,
    "tgc@statsbiblioteket.dk": 3,
    "eungjun.yi@navercorp.com": 3,
    "bebe@bebehei.de": 1,
    "margtu-fivt@ya.ru": 1,
    "draenog@pld-linux.org": 12,
    "kirill.shutemov@linux.intel.com": 2,
    "artagnon@gmail.com": 196,
    "git@cryptocrack.de": 9,
    "raphael.kubo.da.costa@intel.com": 1,
    "reubenhwk@gmail.com": 3,
    "awilliam@redhat.com": 1,
    "jess.austin@gmail.com": 1,
    "kiraly@disi.unitn.it": 1,
    "joan.perals@ixds.com": 1,
    "henrix@camandro.org": 2,
    "peter@avirtualhome.com": 2,
    "dpb@corrigendum.ru": 2,
    "jguenther@gmail.com": 1,
    "onno@gmx.net": 1,
    "svlc@inventati.org": 4,
    "fedora.dm0@gmail.com": 8,
    "paul@mad-scientist.net": 1,
    "hartmut_henkel@gmx.de": 1,
    "danwyand@gmail.com": 1,
    "johan@herland.net": 174,
    "max@quendi.de": 14,
    "thomas@quinot.org": 2,
    "nicolas.dermine@gmail.com": 1,
    "ockham@raz.or.at": 5,
    "tmikov@gmail.com": 1,
    "rdebath@tvisiontech.co.uk": 1,
    "sveinung84@users.sourceforge.net": 1,
    "stoklund@2pi.dk": 2,
    "etienne.buira@gmail.com": 2,
    "lolando@debian.org": 1,
    "themineo@gmail.com": 3,
    "michi@icosahedron.de": 1,
    "brian@gernhardtsoftware.com": 33,
    "harry@exec64.co.uk": 1,
    "patrick.reynolds@github.com": 2,
    "sergey.senozhatsky@gmail.com": 1,
    "ian.liu88@gmail.com": 1,
    "vq@larryv.me": 1,
    "travelingsoul86@gmail.com": 1,
    "arjun024@gmail.com": 1,
    "bricelam@live.com": 1,
    "bbolli@ewanet.ch": 3,
    "sortie@maxsi.org": 3,
    "satori@yandex-team.ru": 3,
    "jsorianopastor@gmail.com": 2,
    "linusarver@gmail.com": 7,
    "michael.barabanov@windriver.com": 1,
    "jacob.e.keller@intel.com": 2,
    "dr.khong@gmail.com": 1,
    "Jens.Lehmann@web.de": 136,
    "abbaad@gmail.com": 1,
    "zoltan.klinger@gmail.com": 4,
    "ak@linux.intel.com": 6,
    "jmmahler@gmail.com": 7,
    "andersk@MIT.EDU": 14,
    "charlesmchen@gmail.com": 1,
    "geist.henri@laposte.net": 1,
    "frrrwww@gmail.com": 2,
    "jajcus@jajcus.net": 1,
    "kasal@ucw.cz": 3,
    "czawadka@gmail.com": 1,
    "mst@redhat.com": 17,
    "pasha.bolokhov@gmail.com": 1,
    "mnaoumov@gmail.com": 1,
    "nick.alcock@oracle.com": 1,
    "modocache@gmail.com": 17,
    "jmccrohan@gmail.com": 1,
    "jl@opera.com": 4,
    "jstjohn@purdue.edu": 9,
    "Alex.Crezoff@gmail.com": 6,
    "postmaster@greg0ire.fr": 1,
    "nod.helm@gmail.com": 6,
    "1007380@gmail.com": 1,
    "dturner@twitter.com": 1,
    "tg@debian.org": 1,
    "tolga.ceylan@gmail.com": 1,
    "danalbert@google.com": 1,
    "theodore.leblond@gmail.com": 1,
    "joern@logfs.org": 1,
    "jeanjacques.lafay@gmail.com": 1,
    "martinerikwerner@gmail.com": 10,
    "mcgrof@suse.com": 1,
    "belinsky.roman@gmail.com": 1,
    "kusmabite@googlemail.com": 19,
    "yiannis.marangos@gmail.com": 2,
    "dx@dxzone.com.ar": 1,
    "kirr@mns.spb.ru": 39,
    "vdogaru@ixiacom.com": 1,
    "tanoku@gmail.com": 16,
    "marat@slonopotamus.org": 5,
    "aman@tmm1.net": 1,
    "jlebar@google.com": 4,
    "adam@sigterm.info": 1,
    "dilyan.palauzov@aegee.org": 2,
    "rosuav@gmail.com": 1,
    "halsmit@t-online.de": 2,
    "sh19910711@gmail.com": 1,
    "astrilhayato@gmail.com": 2,
    "yshuiv7@gmail.com": 2,
    "unsignedzero@gmail.com": 1,
    "ba.bourn@gmail.com": 2,
    "uwe@ibr.ch": 2,
    "benoit.pierre@gmail.com": 7,
    "amdmi3@amdmi3.ru": 2,
    "rohit.mani@outlook.com": 1,
    "sunheehnus@gmail.com": 3,
    "jacopo.notarstefano@gmail.com": 2,
    "sandy.carter@savoirfairelinux.com": 1,
    "dmitrys.dolzhenko@yandex.ru": 15,
    "scottjg@github.com": 1,
    "boklm@mars-attacks.org": 15,
    "brad.king@kitware.com": 22,
    "richlowe@richlowe.net": 1,
    "rctay89@gmail.com": 126,
    "jm18@sanger.ac.uk": 1,
    "roberto.tyley@gmail.com": 2,
    "andrew@kellerfarm.com": 1,
    "kirill@shutemov.name": 4,
    "larsbj@gullik.org": 1,
    "ch3cooli@gmail.com": 1,
    "alash3@bloomberg.net": 4,
    "ajohnson@redneon.com": 2,
    "tsunanet@gmail.com": 2,
    "dhsharp@google.com": 1,
    "andy753421@gmail.com": 1,
    "manjian2006@gmail.com": 1,
    "pw@padd.com": 152,
    "kusmabite@gmail.com": 66,
    "rkagan@mail.ru": 5,
    "ruben@rubenkerkhof.com": 1,
    "Anthony.Baire@irisa.fr": 1,
    "brodie@sf.io": 1,
    "ceztko@gmail.com": 1,
    "einmalfel@gmail.com": 1,
    "jackerran@gmail.com": 2,
    "bsiegert@herc.mirbsd.org": 1,
    "apelisse@gmail.com": 30,
    "naesten@gmail.com": 4,
    "krzesimir@endocode.com": 4,
    "joshuacookebarnes@gmail.com": 1,
    "nick.townsend@mac.com": 1,
    "trast@inf.ethz.ch": 57,
    "cdleonard@gmail.com": 1,
    "hegge@resisty.net": 7,
    "standby24x7@gmail.com": 4,
    "coder5000@gmail.com": 1,
    "vivien.didelot@savoirfairelinux.com": 2,
    "ruediger@c-plusplus.de": 3,
    "sitaramc@gmail.com": 10,
    "stefanbeller@googlemail.com": 42,
    "hemmo.nieminen@iki.fi": 1,
    "ssaasen@atlassian.com": 3,
    "julien.carsique@gmail.com": 1,
    "keshav.kini@gmail.com": 4,
    "tzz@lifelogs.com": 3,
    "benoit.person@gmail.com": 1,
    "ayiehere@gmail.com": 10,
    "dave@opensourcesolutions.co.uk": 1,
    "Lee.Carver@servicenow.com": 1,
    "hiroshige88@gmail.com": 1,
    "cederp@opera.com": 1,
    "john.murphy@baml.com": 1,
    "uli.heller@daemons-point.com": 1,
    "stephen@exigencecorp.com": 10,
    "ksaitoh560@gmail.com": 2,
    "t.glaser@tarent.de": 1,
    "flashcode@flashtux.org": 1,
    "matthijs@stdin.nl": 4,
    "mads@dorup.dk": 1,
    "worley@alum.mit.edu": 4,
    "jlafon@eyesopen.com": 1,
    "alexj@rosedu.org": 1,
    "pape@smarden.org": 71,
    "felgru@gmx.de": 1,
    "jeremyhu@apple.com": 1,
    "neleai@seznam.cz": 5,
    "daniele.segato@gmail.com": 1,
    "mauricio.antunes@gmail.com": 1,
    "mlevedahl@gmail.com": 22,
    "andrew.kw.w@gmail.com": 16,
    "me@JonathonMah.com": 6,
    "mschub@elegosoft.com": 13,
    "madcityzen@gmail.com": 1,
    "richih.mailinglist@gmail.com": 6,
    "benoit.person@ensimag.fr": 9,
    "rene.scharfe@lsrfire.ath.cx": 398,
    "frase@frase.id.au": 4,
    "vmiklos@suse.cz": 4,
    "arnau@debian.org": 1,
    "pasky@ucw.cz": 45,
    "andrew@pimlott.net": 4,
    "stefano.lattarini@gmail.com": 30,
    "kevin@bracey.fi": 25,
    "erdavila@gmail.com": 5,
    "Jorge-Juan.Garcia-Garcia@ensimag.imag.fr": 4,
    "yselkowitz@users.sourceforge.net": 1,
    "vlajos@gmail.com": 1,
    "namhyung.kim@lge.com": 3,
    "celestin.matte@ensimag.fr": 32,
    "Mathieu.Lienard--Mayor@ensimag.imag.fr": 2,
    "ojab@ojab.ru": 1,
    "martinvonz@gmail.com": 34,
    "chazmcgarvey@brokenzipper.com": 1,
    "stefan@haller-berlin.de": 9,
    "github@pleasedontspam.me": 1,
    "chris@rorvick.com": 14,
    "nitoyon@gmail.com": 1,
    "quanxunzhen@gmail.com": 1,
    "drizzd@aon.at": 90,
    "tobias.schulte@gliderpilot.de": 1,
    "n8gray@n8gray.org": 1,
    "ambakshi@gmail.com": 1,
    "filcab@gmail.com": 1,
    "sbodomerle@gmail.com": 1,
    "tair.sabirgaliev@bee.kz": 1,
    "martin@laptop.org": 1,
    "Knut.Franke@gmx.de": 1,
    "wildfire@progsoc.org": 16,
    "worley@ariadne.com": 1,
    "pjwhams@gmail.com": 1,
    "michael@inetric.com": 1,
    "vikrant.varma94@gmail.com": 2,
    "andersgb@gmail.com": 1,
    "mheemskerk@atlassian.com": 2,
    "git@adamspiers.org": 41,
    "h.m.brand@xs4all.nl": 3,
    "j.sixt@viscovery.net": 10,
    "dusty@linux.ca": 3,
    "price@astro.princeton.edu": 1,
    "modestas@vainius.eu": 1,
    "bbourbie@slb.com": 1,
    "peter.van.zetten@cgi.com": 1,
    "jkoleszar@google.com": 1,
    "christophe@kn.gl": 3,
    "timotheus.pokorra@gmail.com": 1,
    "deng@randomsample.de": 1,
    "Martin.vGagern@gmx.net": 1,
    "gauthier@ostervall.se": 1,
    "jaseg@physik.tu-berlin.de": 5,
    "robin.rosenberg@dewire.com": 20,
    "trast@student.ethz.ch": 266,
    "struggleyb.nku@gmail.com": 13,
    "matthias.krueger@famsik.de": 1,
    "jsarvis@openspan.com": 1,
    "christian.helmuth@genode-labs.com": 1,
    "mihai@mihaic.ro": 1,
    "stevenrwalter@gmail.com": 8,
    "danfuzz@milk.com": 1,
    "ydroneaud@opteya.com": 12,
    "max.nanasy@gmail.com": 1,
    "peter@eisentraut.org": 2,
    "mfazekas@szemafor.com": 1,
    "jan.pesta@certicon.cz": 1,
    "price@MIT.EDU": 4,
    "fulldecent@gmail.com": 1,
    "yess@hell.org.pl": 2,
    "mike.gorchak.qnx@gmail.com": 2,
    "stillcompiling@gmail.com": 1,
    "ossi@kde.org": 2,
    "matt.kraai@amo.abbott.com": 5,
    "asheesh@asheesh.org": 1,
    "wangsheng2008love@163.com": 1,
    "lyager@gmail.com": 1,
    "atkac@redhat.com": 2,
    "marc.khouzam@ericsson.com": 3,
    "cjsthompson@gmail.com": 1,
    "sven.strickroth@tu-clausthal.de": 5,
    "sboyd@codeaurora.org": 3,
    "admin@andrej-andb.ru": 1,
    "barry.wardell@gmail.com": 1,
    "lekensteyn@gmail.com": 1,
    "ldv@altlinux.org": 15,
    "chiestand@salk.edu": 1,
    "mprivozn@redhat.com": 3,
    "manlio.perillo@gmail.com": 2,
    "dylan.ah.smith@gmail.com": 1,
    "nickolai@csail.mit.edu": 1,
    "brilliantov@inbox.ru": 1,
    "esr@thyrsus.com": 9,
    "Sebastian.Leske@sleske.name": 8,
    "s.oosthoek@xs4all.nl": 4,
    "git@unrelated.de": 1,
    "avila.jn@gmail.com": 1,
    "mattjd@gmail.com": 3,
    "sloriot.ml@gmail.com": 1,
    "pgf@foxharp.boston.ma.us": 1,
    "christophegragnic@gmail.com": 1,
    "marc.khouzam@gmail.com": 3,
    "mszepien@gmail.com": 1,
    "krzysiek@podlesie.net": 11,
    "paul.gortmaker@windriver.com": 3,
    "enrico.scholz@sigma-chemnitz.de": 1,
    "phil@apcera.com": 1,
    "kraai@ftbfs.org": 15,
    "richard_hubbe11@lavabit.com": 1,
    "jojo@schmitz-digital.de": 11,
    "tom@oxix.org": 1,
    "patrick@parcs.ath.cx": 1,
    "romain@orebokech.com": 2,
    "szager@google.com": 3,
    "gunnlaugur@gmail.com": 1,
    "th.acker66@arcor.de": 7,
    "mk@acc.umu.se": 3,
    "schnhrr@cs.tu-berlin.de": 7,
    "mmogilvi_git@miniinfo.net": 35,
    "richardfearn@gmail.com": 1,
    "dylan@dylex.net": 1,
    "florian.achleitner.2.6.31@gmail.com": 16,
    "divanorama@gmail.com": 23,
    "ammon.riley@gmail.com": 1,
    "robert@debian.org": 2,
    "jmuizelaar@mozilla.com": 1,
    "tobiasu@tmux.org": 1,
    "michal.kiedrowicz@gmail.com": 33,
    "jonathan@leto.net": 2,
    "bebarino@gmail.com": 125,
    "wjl@icecavern.net": 11,
    "yacine.belkadi.1@gmail.com": 1,
    "jwhite@codeweavers.com": 4,
    "david@optimisefitness.com": 1,
    "computerdruid@gmail.com": 2,
    "ktdreyer@ktdreyer.com": 1,
    "pah@qo.cx": 1,
    "jaysoffian@gmail.com": 87,
    "waste.manager@gmx.de": 1,
    "martin.von.zweigbergk@gmail.com": 70,
    "lanxingcan@gmail.com": 9,
    "bwalton@artsci.utoronto.ca": 30,
    "chris@arachsys.com": 16,
    "dev.lists@jessamine.co.uk": 1,
    "askeolsson@gmail.com": 1,
    "dark.panda@gmail.com": 1,
    "schwern@pobox.com": 34,
    "dangra@gmail.com": 2,
    "tim.henigan@gmail.com": 24,
    "marcin@owsiany.pl": 1,
    "eclipse7@gmx.net": 8,
    "ggibbons@perforce.com": 7,
    "Kim-Thuat.Nguyen@ensimag.imag.fr": 2,
    "simon.cathebras@ensimag.imag.fr": 1,
    "guillaume.sasdy@ensimag.imag.fr": 4,
    "davidbarr@google.com": 8,
    "namhyung@kernel.org": 3,
    "Pavel.Volek@ensimag.imag.fr": 1,
    "Javier.Roucher-Iglesias@ensimag.imag.fr": 1,
    "thomas.badie@gmail.com": 1,
    "Huynh-Khoi-Nguyen.Nguyen@ensimag.imag.fr": 4,
    "muhtasib@gmail.com": 1,
    "ralf.thielow@googlemail.com": 25,
    "vmiklos@frugalware.org": 168,
    "vfr@lyx.org": 15,
    "lists@lukaperkov.net": 1,
    "wence@gmx.li": 3,
    "Lucien.Kong@ensimag.imag.fr": 5,
    "marcopaolone@gmail.com": 2,
    "jon.seymour@gmail.com": 72,
    "cranger@google.com": 1,
    "apenwarr@gmail.com": 86,
    "avishay.lavie@gmail.com": 1,
    "bobbypowers@gmail.com": 2,
    "marcomsousa@gmail.com": 3,
    "florian.achleitner2.6.31@gmail.com": 1,
    "angusgh@gmail.com": 1,
    "nhorman@tuxdriver.com": 5,
    "zbyszek@in.waw.pl": 33,
    "jk@jk.gs": 14,
    "lucian.poston@gmail.com": 8,
    "jim@meyering.net": 66,
    "christiwald@gmail.com": 2,
    "byrial@vip.cybercity.dk": 2,
    "sebastian@pipping.org": 2,
    "grnch@gmx.net": 4,
    "haircut@gmail.com": 2,
    "wking@drexel.edu": 3,
    "johannes@sipsolutions.net": 1,
    "lodatom@gmail.com": 25,
    "linux@rodrigosilva.com": 1,
    "nelsonjesus.benitez@seap.minhap.es": 2,
    "djw@spamcop.net": 1,
    "dev@randomguy3.me.uk": 1,
    "fbriere@fbriere.net": 1,
    "martin@gnutiken.se": 1,
    "bkerensa@ubuntu.com": 1,
    "alex@inferiorhumanorgans.com": 1,
    "jaredhance@gmail.com": 9,
    "karsten.blees@dcon.de": 1,
    "tmgrennan@gmail.com": 2,
    "lpechacek@suse.cz": 3,
    "willsmith3389@gmail.com": 1,
    "yyc1992@gmail.com": 1,
    "lu.riku@gmail.com": 1,
    "philip@foolip.org": 4,
    "mezner@russellmyers.com": 1,
    "swalter@lexmark.com": 1,
    "chen.weiyin@gmail.com": 1,
    "frederic.heitzmann@gmail.com": 3,
    "jehan@orb.com": 2,
    "info@christian-hammerl.de": 1,
    "philip.jagenstedt@gmail.com": 1,
    "kensington@astralcloak.net": 1,
    "tytso@mit.edu": 34,
    "adrian.weimann@googlemail.com": 2,
    "brl+git@mail.brlink.eu": 6,
    "surfingalbert@gmail.com": 1,
    "kirr@navytux.spb.ru": 1,
    "joey@kitenet.net": 7,
    "ferringb@gmail.com": 2,
    "jacknagel@gmail.com": 3,
    "jelmer@samba.org": 1,
    "jk@blackdown.de": 3,
    "conrad.irwin@gmail.com": 8,
    "pgit@pcharlan.com": 6,
    "sebastian@morr.cc": 1,
    "thomas.jarosch@intra2net.com": 2,
    "thh@inter.net": 1,
    "marcandre.lureau@gmail.com": 3,
    "hendeby@isy.liu.se": 19,
    "tailai.ly@taobao.com": 1,
    "nix@esperi.org.uk": 2,
    "tilman.vogel@web.de": 1,
    "mika.fischer@zoopnet.de": 3,
    "ted.percival@quest.com": 1,
    "kato.kazuyoshi@gmail.com": 2,
    "dejan.ribic@gmail.com": 1,
    "jm@jmuchemb.eu": 1,
    "lenaic@lhuard.fr.eu.org": 1,
    "dpmcgee@gmail.com": 38,
    "kumbayo84@arcor.de": 3,
    "drew.northup@maine.edu": 2,
    "mwolson@gnu.org": 4,
    "cowose@gmail.com": 1,
    "teemu.matilainen@iki.fi": 3,
    "ilari.liusvaara@elisanet.fi": 28,
    "cowose@googlemail.com": 2,
    "julian@quantumfyre.co.uk": 26,
    "pangyanhan@gmail.com": 3,
    "peter@stuge.se": 1,
    "allan.caffee@gmail.com": 12,
    "bjacobs@woti.com": 2,
    "lihaitao@gmail.com": 1,
    "srabbelier@gmail.com": 39,
    "Hui.Wang@windriver.com": 1,
    "jeremie.nikaes@ensimag.imag.fr": 1,
    "rchen@cs.umd.edu": 1,
    "devel-git@morey-chaisemartin.com": 1,
    "frekui@gmail.com": 14,
    "michael@stapelberg.de": 1,
    "roberto.tyley@guardian.co.uk": 1,
    "max@stro.at": 2,
    "cota@braap.org": 2,
    "zzs213@126.com": 1,
    "jon@endpoint.com": 2,
    "yggy@zeroandone.ca": 1,
    "peter@pcc.me.uk": 6,
    "tcort@minix3.org": 1,
    "pavan.sss1991@gmail.com": 8,
    "vitalivanov@gmail.com": 1,
    "david@fries.net": 2,
    "zarzycki@apple.com": 1,
    "david@porkrind.org": 1,
    "git@christof-krueger.de": 1,
    "peff@github.com": 2,
    "mduft@gentoo.org": 3,
    "ludwig.nussel@suse.de": 1,
    "zakmagnus@google.com": 2,
    "theo@taletn.com": 3,
    "dabrown@physics.syr.edu": 1,
    "killekulla@rdrz.de": 2,
    "csaba@lowlife.hu": 1,
    "david.barr@cordelta.com": 25,
    "warthog9@eaglescrag.net": 2,
    "rafael@gieschke.de": 2,
    "corgrath@gmail.com": 1,
    "billiob@gmail.com": 1,
    "jabcalves@gmail.com": 1,
    "valentin.haenel@gmx.de": 9,
    "git.avalakvista@gmail.com": 1,
    "ciaranj@gmail.com": 1,
    "guyr@burntmail.com": 1,
    "seb@cine7.net": 3,
    "sylvain@abstraction.fr": 4,
    "jistone@redhat.com": 1,
    "misfire@debugon.org": 4,
    "kornet@camk.edu.pl": 1,
    "mingo@elte.hu": 6,
    "marius@storm-olsen.com": 1,
    "stsp@stsp.name": 2,
    "jknight@itasoftware.com": 1,
    "andrew@andrewgarber.com": 1,
    "nmorey@kalray.eu": 1,
    "nicolas.morey@free.fr": 1,
    "jratt0@gmail.com": 2,
    "maxin@maxinbjohn.info": 1,
    "jpfender@elegosoft.com": 2,
    "piotr.krukowiecki@gmail.com": 4,
    "cernekee@gmail.com": 2,
    "alcosholik@gmail.com": 3,
    "torarvid@gmail.com": 8,
    "nikai@nikai.net": 1,
    "rokos@nextsoft.cz": 2,
    "u.kleine-koenig@pengutronix.de": 11,
    "fk@fabiankeil.de": 1,
    "eric.hanchrow@gmail.com": 1,
    "michael.horowitz@ieee.org": 1,
    "olsonse@umich.edu": 3,
    "unpush@gmail.com": 1,
    "Ralf.Wildenhues@gmx.de": 30,
    "ianw@vmware.com": 1,
    "alexandre@ittner.com.br": 2,
    "bsvskip@rambler.ru": 2,
    "ftrvxmtrx@gmail.com": 1,
    "B.Steinbrink@gmx.de": 27,
    "zapped@mail.ru": 1,
    "mail4stb@gmail.com": 1,
    "ospite@studenti.unina.it": 3,
    "carenas@sajinet.com.pe": 2,
    "robbat2@gentoo.org": 15,
    "arnouten@bzzt.net": 1,
    "kirr@landau.phys.spbu.ru": 10,
    "tfransosi@gmail.com": 14,
    "vvavrychuk@gmail.com": 1,
    "ydirson@altern.org": 28,
    "asedeno@MIT.EDU": 2,
    "stefan.naewe@googlemail.com": 3,
    "andersk@ksplice.com": 5,
    "alan@theraisons.me.uk": 1,
    "santi@agolina.net": 14,
    "jari.aalto@cante.net": 21,
    "kevin@sb.org": 27,
    "aga@iki.fi": 1,
    "flameeyes@gmail.com": 1,
    "joe@perches.com": 4,
    "gabriel.corona@enst-bretagne.fr": 2,
    "jesse.greenwald@gmail.com": 2,
    "fedux@lugmen.org.ar": 1,
    "martin@martin.st": 7,
    "dotzenlabs@gmail.com": 4,
    "patnotz@gmail.com": 8,
    "davidk@lysator.liu.se": 18,
    "sven.eckelmann@gmx.de": 1,
    "nathan.panike@gmail.com": 2,
    "apwaters@googlemail.com": 1,
    "vanuan@gmail.com": 1,
    "cstanfield@antifusion.net": 1,
    "agruen@suse.de": 9,
    "cliff@meraki.com": 1,
    "christoph.mallon@gmx.de": 1,
    "tony.luck@intel.com": 14,
    "andi5.py@gmx.net": 1,
    "stepan.nemec@gmail.com": 7,
    "jjensen@workspacewhiz.com": 6,
    "ken.schalk@intel.com": 2,
    "tom@dbservice.com": 1,
    "alexander@sulfrian.net": 2,
    "cwilson@cdwilson.us": 1,
    "swalter@lpdev.prtdev.lexmark.com": 2,
    "chris_johnsen@pobox.com": 15,
    "kpfleming@digium.com": 2,
    "ods15@ods15.dyndns.org": 1,
    "pascal@obry.net": 5,
    "gsvick@gmail.com": 2,
    "a.kruis@science-computing.de": 1,
    "csaba@gluster.com": 2,
    "gdb@MIT.EDU": 7,
    "justin@cockos.com": 2,
    "marada@uwaterloo.ca": 18,
    "lznuaa@gmail.com": 10,
    "ddkilzer@kilzer.net": 15,
    "jasone@canonware.com": 1,
    "nelhage@ksplice.com": 1,
    "harinath@hurrynot.org": 2,
    "diane.gasselin@ensimag.imag.fr": 2,
    "w@1wt.eu": 2,
    "mike@fluffypenguin.org": 1,
    "clement.poulain@ensimag.imag.fr": 4,
    "markus.heidelberg@web.de": 62,
    "dstatyvka@tmsoft-ltd.kiev.ua": 1,
    "bryan@larsen.st": 3,
    "vsu@altlinux.ru": 50,
    "oren@held.org.il": 1,
    "fredrik@frsk.net": 3,
    "nicolas.s.dev@gmx.fr": 4,
    "agladysh@gmail.com": 1,
    "eli@barzilay.org": 2,
    "madcoder@debian.org": 140,
    "price@ksplice.com": 5,
    "dgreid@gmail.com": 1,
    "eyvind.bernhardsen@gmail.com": 7,
    "brian@silverinsanity.com": 1,
    "andrew-git@pileofstuff.org": 2,
    "axel.bonnet@ensimag.imag.fr": 3,
    "book@cpan.org": 8,
    "bdowning@lavos.net": 21,
    "r0bertz@gentoo.org": 1,
    "icomfort@stanford.edu": 3,
    "tor@spacetec.no": 1,
    "simo.melenius@iki.fi": 2,
    "erick.mattos@gmail.com": 7,
    "mkiwala@genome.wustl.edu": 1,
    "git@mlists.thewrittenword.com": 18,
    "gscrivano@gnu.org": 1,
    "dvornik+git@gmail.com": 1,
    "ian.mclean@gmail.com": 1,
    "pelle@kodfabrik.se": 3,
    "sam.vilain@catalyst.net.nz": 22,
    "marcus@mc.pp.se": 1,
    "dpotapov@gmail.com": 39,
    "eli@cloudera.com": 1,
    "finnag@pvv.org": 10,
    "git-ts@theblacksun.eu": 1,
    "lstorset@opera.com": 1,
    "pkufranky@gmail.com": 14,
    "squadette@gmail.com": 1,
    "esr@snark.thyrsus.com": 1,
    "sam@rfc1149.net": 7,
    "bonzini@gnu.org": 17,
    "heipei@hackvalue.de": 3,
    "grubba@grubba.org": 5,
    "bgustavsson@gmail.com": 36,
    "y0netan1@dragonflybsd.org": 1,
    "schacon@gmail.com": 4,
    "holger@zedat.fu-berlin.de": 5,
    "jstepien@users.sourceforge.net": 1,
    "gbacon@dbresearch.net": 2,
    "lars@pixar.com": 3,
    "tyler@monkeypox.org": 1,
    "bmeyer@rim.com": 1,
    "imre.deak@gmail.com": 2,
    "mark@pogo.org.uk": 5,
    "tuomas.suutari@gmail.com": 6,
    "sdrake@xnet.co.nz": 8,
    "michaelwookey@gmail.com": 2,
    "stefan.hahn@s-hahn.de": 6,
    "larry@elder-gods.org": 8,
    "simpkins@facebook.com": 5,
    "josh_robb@fastmail.fm": 1,
    "fnegroni@flexerasoftware.com": 1,
    "nelhage@MIT.EDU": 3,
    "barra_cuda@katamail.com": 54,
    "evan.powers@gmail.com": 1,
    "jacob.helwig@gmail.com": 3,
    "michael.lukashov@gmail.com": 5,
    "lelutin@gmail.com": 1,
    "mitake@dcl.info.waseda.ac.jp": 2,
    "wayne@tickzoom.com": 1,
    "pasky@suse.cz": 176,
    "dsabath@whitepages.com": 2,
    "treese@acm.org": 2,
    "git@aaroncrane.co.uk": 1,
    "amyrick@apple.com": 5,
    "warthog9@kernel.org": 7,
    "etrillaud@gmail.com": 3,
    "celtic@sairyx.org": 1,
    "nanako3@lavabit.com": 67,
    "pal_engstad@naughtydog.com": 1,
    "stimming@tuhh.de": 48,
    "benny.kra@googlemail.com": 11,
    "ariveira@gmail.com": 1,
    "jepler@unpythonic.net": 2,
    "chris@celabs.com": 1,
    "igor.a.mironov@gmail.com": 4,
    "vonbrand@inf.utfsm.cl": 13,
    "tarmigan+git@gmail.com": 12,
    "dripton@ripton.net": 1,
    "barkalow@iabervon.org": 170,
    "ahaczewski@gmail.com": 1,
    "richard@nod.at": 1,
    "jh@jameshoward.us": 1,
    "jakub.suder@gmail.com": 9,
    "bart@jukie.net": 2,
    "dave@dulson.com": 2,
    "djszapi@archlinux.us": 1,
    "public_vi@tut.by": 4,
    "osv@javad.com": 16,
    "mille121@illinois.edu": 1,
    "robert.a.zeh@gmail.com": 3,
    "nwf@cs.jhu.edu": 1,
    "dreiss@facebook.com": 6,
    "sam@vilain.net": 15,
    "alex@chmrr.net": 5,
    "makovick@gmail.com": 1,
    "angavrilov@gmail.com": 89,
    "junio@kernel.org": 3,
    "dsp@php.net": 5,
    "raman@rocketraman.com": 1,
    "luksan@gmail.com": 1,
    "bricollins@gmail.com": 1,
    "toby.allsopp@navman.co.nz": 1,
    "mizar.jp@gmail.com": 2,
    "gisle@aas.no": 2,
    "bernt@norang.ca": 2,
    "vietor@vxwo.org": 2,
    "davidb@quicinc.com": 1,
    "jean@pryen.org": 1,
    "mstormo@gmail.com": 9,
    "ingmar@exherbo.org": 2,
    "nasser@codeaurora.org": 1,
    "crmafra@aei.mpg.de": 1,
    "pav@iki.fi": 1,
    "simon@fire.lp0.eu": 3,
    "j416@1616.se": 1,
    "adambrewster@gmail.com": 6,
    "meyering@redhat.com": 10,
    "schwarzerf@gmail.com": 2,
    "chressie@googlemail.com": 2,
    "iler.ml@gmail.com": 7,
    "marius.storm-olsen@nokia.com": 1,
    "snaury@gmail.com": 2,
    "reillyeon@qotw.net": 1,
    "enselic@gmail.com": 1,
    "nico@cam.org": 315,
    "b.gianfo@gmail.com": 1,
    "hjemli@gmail.com": 55,
    "wil@nohakostudios.net": 1,
    "gianluca.pacchiella@ktln2.org": 1,
    "karthikr@fastmail.fm": 1,
    "julliard@winehq.org": 109,
    "dirker@gmail.com": 1,
    "pebolle@tiscali.nl": 3,
    "amiel.martin@gmail.com": 2,
    "dzwell@zwell.net": 1,
    "ni.s@laposte.net": 2,
    "jeff.lasslett@gmail.com": 1,
    "mike@abacus.co.uk": 16,
    "zfuzesi@eaglet.hu": 1,
    "andre.goddard@gmail.com": 3,
    "irving@naml.us": 2,
    "barvik@broadpark.no": 26,
    "james.e.pickens@intel.com": 1,
    "cascardo@holoscopio.com": 2,
    "tgrennan@redback.com": 1,
    "seanlkml@sympatico.ca": 38,
    "trsten@science-computing.de": 1,
    "matthias.andree@gmx.de": 1,
    "mkoegler@auto.tuwien.ac.at": 52,
    "win@wincent.com": 34,
    "mattias.nissler@gmx.de": 2,
    "casey@nrlssc.navy.mil": 110,
    "ae@op5.se": 15,
    "nick@noodlefactory.co.uk": 2,
    "hunter@ll.mit.edu": 1,
    "martinxyz@gmx.ch": 1,
    "mmarek@suse.cz": 2,
    "uli@spamt.net": 1,
    "cdfrey@foursquare.net": 4,
    "ben@ben.com": 6,
    "roel.kluin@gmail.com": 1,
    "kernel-hacker@bennee.com": 2,
    "sirnot@gmail.com": 2,
    "marcone@xs4all.nl": 1,
    "daniel.trstenjak@online.de": 1,
    "marius@trolltech.com": 21,
    "edwardzyang@thewritingpot.com": 1,
    "nickwoolley@yahoo.co.uk": 1,
    "newsletter@dirk.my1.cc": 4,
    "git@peter.is-a-geek.org": 2,
    "ebiederm@xmission.com": 28,
    "alexmv@MIT.EDU": 3,
    "rea-git@codelabs.ru": 18,
    "mdg149@gmail.com": 2,
    "theappleman@gmail.com": 1,
    "josh.micich@gmail.com": 3,
    "Tony.Kemp@newcastle.edu.au": 1,
    "xyzzy@speakeasy.org": 1,
    "flichtenheld@astaro.com": 4,
    "aspotashev@gmail.com": 7,
    "bernd@ba-net.org": 1,
    "das@users.sourceforge.net": 2,
    "ebb9@byu.net": 3,
    "prlw1@cam.ac.uk": 1,
    "markdrago@gmail.com": 2,
    "peter.hutterer@who-t.net": 1,
    "wfp5p@virginia.edu": 1,
    "daniel.loewenherz@yale.edu": 1,
    "Ulrich.Windl@rz.uni-regensburg.de": 1,
    "j16sdiz+freenet@gmail.com": 2,
    "boris.byk@gmail.com": 1,
    "ferry.huberts@pelagic.nl": 2,
    "erikbroes@ripe.net": 1,
    "joerg.bornemann@web.de": 1,
    "julien@danjou.info": 1,
    "ali@rudi.ir": 2,
    "nico-linux-git@schottelius.org": 1,
    "sit@emilsit.net": 2,
    "michael@ndrix.org": 7,
    "dmellor@whistlingcat.com": 17,
    "sam@zoy.org": 2,
    "ajonsson@kapsi.fi": 1,
    "kevin.mcconnell@gmail.com": 1,
    "git-list@hvoigt.net": 2,
    "kristian.amlie@nokia.com": 1,
    "amos.l.king@gmail.com": 2,
    "janos.dev@gmail.com": 1,
    "ncase@xes-inc.com": 1,
    "jasampler@gmail.com": 26,
    "petrkodl@gmail.com": 2,
    "prlawrence@gmail.com": 1,
    "myllai@gmail.com": 1,
    "benji@silverinsanity.com": 37,
    "eugene@facebook.com": 1,
    "johnflux@gmail.com": 5,
    "carlos.duclos@nokia.com": 1,
    "keith@cs.ucla.edu": 3,
    "roylee17@gmail.com": 1,
    "torarnv@gmail.com": 2,
    "dt@korn.shell.la": 1,
    "tlikonen@iki.fi": 14,
    "git@storm-olsen.com": 2,
    "ams@toroid.org": 15,
    "marcel@oak.homeunix.org": 5,
    "lars@public.noschinski.de": 5,
    "mspang@uwaterloo.ca": 6,
    "devait@mailbox.sk": 1,
    "arjen@yaph.org": 14,
    "markb@ordern.com": 4,
    "deskinm@umich.edu": 12,
    "git@randomhacks.net": 2,
    "ted@tedpavlic.com": 10,
    "pknotz@sandia.gov": 1,
    "anton@iki.fi": 2,
    "git@fabian-franz.de": 1,
    "geofft@mit.edu": 2,
    "jidanni@jidanni.org": 5,
    "bill.pursell@gmail.com": 8,
    "guanqun.lu@gmail.com": 4,
    "stefan.karpinski@gmail.com": 2,
    "svdb@stack.nl": 1,
    "goulding@vivisimo.com": 3,
    "shaslam@lastminute.com": 4,
    "mail@cup.kalibalik.dk": 13,
    "madduck@madduck.net": 6,
    "bss@iguanasuicide.net": 4,
    "keith@CS.UCLA.EDU": 3,
    "git-dev@marzelpan.de": 4,
    "jonas@floden.nu": 1,
    "tavestbo@trolltech.com": 1,
    "jdl@freescale.com": 17,
    "dato@net.com.org.es": 6,
    "lee.marlow@gmail.com": 21,
    "prj@po.cwru.edu": 1,
    "henrik@austad.us": 2,
    "fabian.emmes@rwth-aachen.de": 4,
    "devin@doucette.cc": 1,
    "catap@catap.ru": 2,
    "robin.rosenberg.lists@dewire.com": 5,
    "fengguang.wu@intel.com": 1,
    "qhwt+git@les.ath.cx": 1,
    "davidel@xmailserver.org": 4,
    "david.syzdek@acsalaska.net": 6,
    "tpiepho@freescale.com": 2,
    "bryan@shatow.net": 1,
    "tuncer.ayaz@gmail.com": 4,
    "crquan@gmail.com": 7,
    "stefan.naewe@atlas-elektronik.com": 2,
    "developer@svanfeldt.com": 2,
    "dsymonds@gmail.com": 11,
    "thestar@fussycoder.id.au": 2,
    "dlowe@bitmuse.com": 2,
    "qtonthat@gmail.com": 14,
    "mikachu@gmail.com": 10,
    "tom@github.com": 2,
    "johannes.sixt@telecom.at": 152,
    "fonseca@diku.dk": 65,
    "tv@eagain.net": 2,
    "christian@jaeger.mine.nu": 1,
    "bain@devslashzero.com": 1,
    "richard.quirk@gmail.com": 4,
    "jon.delStrother@bestbefore.tv": 5,
    "rafl@debian.org": 2,
    "mfwitten@MIT.EDU": 12,
    "luc@honk-honk.com": 1,
    "mika@grml.org": 1,
    "david@statichacks.org": 1,
    "rgarciasuarez@gmail.com": 4,
    "joshua.williams@qlogic.com": 1,
    "gdolley@ucla.edu": 1,
    "ponch@autistici.org": 1,
    "raible@gmail.com": 6,
    "gdolley@arpnetworks.com": 1,
    "alec@thened.net": 2,
    "heikki.orsila@iki.fi": 15,
    "pdebie@ai.rug.nl": 11,
    "michaeljgruber+gmane@fastmail.fm": 2,
    "marcus@griep.us": 11,
    "dotanba@gmail.com": 1,
    "gnuruandstuff@yahoo.co.uk": 1,
    "fw@deneb.enyo.de": 4,
    "ask@develooper.com": 5,
    "paolo.ciarrocchi@gmail.com": 4,
    "mk@spinlock.ch": 3,
    "simon@lst.de": 124,
    "andreas.faerber@web.de": 1,
    "jrnieder@uchicago.edu": 31,
    "dan@macbook.danhensgen.com": 1,
    "maillist@steelskies.com": 3,
    "bpeeluk@yahoo.co.uk": 1,
    "rschiele@gmail.com": 9,
    "dzickus@redhat.com": 6,
    "srb@cuci.nl": 7,
    "gafunchal@gmail.com": 1,
    "peter@morch.com": 3,
    "marek.zawirski@gmail.com": 1,
    "rob.blum@gmail.com": 1,
    "alexandre.bourget@savoirfairelinux.com": 2,
    "francis.moro@gmail.com": 2,
    "kha@treskal.com": 21,
    "pokemon@fly.srk.fer.hr": 1,
    "koreth@midwinter.com": 14,
    "ciaran.mccreesh@googlemail.com": 2,
    "dkr@freesurf.fr": 14,
    "robertshearman@gmail.com": 5,
    "p_christ@hol.gr": 1,
    "n_schumacher@web.de": 1,
    "goweol@gmail.com": 1,
    "lars.noschinski@rwth-aachen.de": 1,
    "proski@gnu.org": 43,
    "joao@abecasis.name": 1,
    "ifreecarve@gmail.com": 1,
    "lukass@etek.chalmers.se": 34,
    "hvammen+git@gmail.com": 1,
    "Dmitry.Kakurin@gmail.com": 1,
    "offby1@blarg.net": 2,
    "sf@9by6.de": 1,
    "whee@smaertness.net": 10,
    "microschulz@web.de": 1,
    "voss@seehuhn.de": 1,
    "lewiemann@gmail.com": 19,
    "ted@midg3t.net": 1,
    "jingxue@digizenstudio.com": 2,
    "mstormo_git@storm-olsen.com": 5,
    "patrick.higgins@cexp.com": 2,
    "corellian.c@gmail.com": 1,
    "amery@geeks.cl": 1,
    "flavio@polettix.it": 1,
    "chris.ridd@isode.com": 1,
    "fred.maranhao@gmail.com": 1,
    "gerberb@zenez.com": 2,
    "adam@adamsimpkins.net": 15,
    "MichaelTiloDressel@t-online.de": 1,
    "christi@uni-hd.de": 1,
    "seth@userprimary.net": 1,
    "jamis@37signals.com": 1,
    "jjfraney@gmail.com": 1,
    "luciano@eurotux.com": 1,
    "twiinz@gmail.com": 1,
    "puzza007@gmail.com": 1,
    "aroben@apple.com": 21,
    "chris@edendevelopment.co.uk": 1,
    "jdl@jdl.com": 20,
    "imyousuf@smartitengineering.com": 1,
    "ian.hilt@gmail.com": 1,
    "dustin@spy.net": 3,
    "sschuberth@visageimaging.com": 1,
    "cmarcelo@gmail.com": 2,
    "gitzilla@gmail.com": 15,
    "kkowalczyk@gmail.com": 1,
    "thomas.arcila@gmail.com": 1,
    "sbejar@gmail.com": 29,
    "joerg@alea.gnuu.de": 3,
    "bdonlan@fushizen.net": 12,
    "apenwarr@versabanq.com": 3,
    "sgala@apache.org": 1,
    "yubao.liu@gmail.com": 3,
    "michaelw@foldr.org": 1,
    "dermoth@aei.ca": 1,
    "abadichi@bezeqint.net": 2,
    "andyparkins@gmail.com": 50,
    "piyo@users.sourceforge.net": 2,
    "albertito@gmail.com": 2,
    "scc@ScottCollins.net": 1,
    "shawn.bohrer@gmail.com": 10,
    "melo@simplicidade.org": 1,
    "torvalds@woody.linux-foundation.org": 9,
    "pascal.obry@gmail.com": 3,
    "s022018@student.dtu.dk": 23,
    "veillette@yahoo.ca": 1,
    "josh@elsasser.org": 1,
    "dash@foobox.net": 7,
    "djpig@debian.org": 1,
    "govind@sophiasuchtig.com": 1,
    "eyvind-git@orakel.ntnu.no": 3,
    "nanako3@bluebottle.com": 10,
    "frank@lichtenheld.de": 68,
    "krh@redhat.com": 25,
    "vineet@doorstop.net": 2,
    "michal.rokos@nextsoft.cz": 5,
    "kaitanie@cc.helsinki.fi": 2,
    "jgoerzen@complete.org": 1,
    "ediap@users.sourceforge.net": 1,
    "Uwe.Kleine-Koenig@digi.com": 4,
    "ph@sorgh.de": 1,
    "eric.y.miao@gmail.com": 1,
    "apw@shadowen.org": 25,
    "jlh@gmx.ch": 8,
    "vanicat@debian.org": 2,
    "cworth@cworth.org": 14,
    "sebastian.noack@gmail.com": 2,
    "tommy-git@thorn.ws": 1,
    "sdrake@ihug.co.nz": 1,
    "stelian@popies.net": 2,
    "dancer@netfort.gr.jp": 1,
    "tim@stoakes.net": 2,
    "jbowes@dangerouslyinc.com": 20,
    "d.s.tweed@reading.ac.uk": 1,
    "jaysoffian+git@gmail.com": 1,
    "mcostalba@gmail.com": 9,
    "ribas@c3sl.ufpr.br": 3,
    "Toby.Allsopp@navman.co.nz": 1,
    "tihirvon@gmail.com": 27,
    "laroche@redhat.com": 2,
    "git@davidb.org": 2,
    "tt1729@yahoo.com": 1,
    "mcmullan@netapp.com": 1,
    "yashi@atmark-techno.com": 15,
    "gb@gbarbier.org": 5,
    "zander@kde.org": 1,
    "mdl123@verizon.net": 24,
    "rael@zopyra.com": 2,
    "dave@krondo.com": 1,
    "peter@svarten.intern.softwolves.pp.se": 1,
    "rogan@dawes.za.net": 1,
    "mstefani@redhat.com": 1,
    "bfields@citi.umich.edu": 130,
    "bernt@alumni.uwaterloo.ca": 1,
    "marco.roeland@xs4all.nl": 5,
    "leehong@pku.edu.cn": 1,
    "davem@davemloft.net": 2,
    "linux@horizon.com": 3,
    "pinir@expand.com": 1,
    "matthias@spinlock.ch": 19,
    "mfwitten@mit.edu": 2,
    "ismail@pardus.org.tr": 3,
    "sandals@crustytoothpaste.ath.cx": 1,
    "kevinlsk@gmail.com": 2,
    "bulb@ucw.cz": 3,
    "pascal.obry@wanadoo.fr": 1,
    "harningt@gmail.com": 1,
    "git@ostkamp.fastmail.fm": 2,
    "dreiss@dreiss-vmware.(none)": 1,
    "voxus@onphp.org": 1,
    "tsuna@lrde.epita.fr": 11,
    "vincent.zanotti@m4x.org": 1,
    "g.hopper@computer.org": 1,
    "Emilian.Medve@Freescale.com": 4,
    "blaker@gmail.com": 1,
    "cpettitt@gmail.com": 3,
    "simon.sasburg@gmail.com": 2,
    "srp@srparish.net": 7,
    "lars@trolltech.com": 1,
    "aurelien@bompard.org": 1,
    "kirillathome@gmail.com": 1,
    "Joakim.Tjernlund@transmode.se": 1,
    "prlw1@newn.cam.ac.uk": 1,
    "git@vicaya.com": 1,
    "clausen@econ.upenn.edu": 1,
    "jjengla@sandia.gov": 4,
    "brian.ewins@gmail.com": 2,
    "mike@csa.net": 2,
    "michael.geb@gmx.at": 1,
    "akalin@akalin.cx": 1,
    "jeff@infidigm.net": 3,
    "mathias@mnet-mail.de": 1,
    "Kristof@provost-engineering.be": 1,
    "v@pp.inet.fi": 3,
    "keithp@keithp.com": 2,
    "federico@novell.com": 4,
    "dbn.lists@gmail.com": 1,
    "fuf@mageo.cz": 1,
    "rdunlap@xenotime.net": 1,
    "msmith@cbnco.com": 2,
    "glenn@rempe.us": 1,
    "stsp@elego.de": 2,
    "smurf@smurf.noris.de": 40,
    "bfields@puzzle.fieldses.org": 4,
    "ulrik.sverdrup@gmail.com": 1,
    "hliusvaa@cc.hut.fi": 1,
    "robert@rlb3.com": 1,
    "skimo@kotnet.org": 28,
    "doug@11011.net": 1,
    "xudong.guan@gmail.com": 2,
    "irina.riesen@gmail.com": 1,
    "chs@ckiste.goetheallee": 3,
    "ltuikov@yahoo.com": 47,
    "miles@gnu.org": 1,
    "tom@u2i.com": 1,
    "dwatson@mimvista.com": 1,
    "salikh.zakirov@gmail.com": 1,
    "lcapitulino@mandriva.com.br": 11,
    "msclrhd@gmail.com": 1,
    "ukleinek@informatik.uni-freiburg.de": 11,
    "bfields@pig.linuxdev.us.dell.com": 5,
    "jyotirmoy@jyotirmoy.net": 1,
    "merlyn@stonehenge.com": 6,
    "tschwinge@gnu.org": 2,
    "jens.axboe@oracle.com": 1,
    "robert.ewald@nov.com": 1,
    "sfalcon@fhcrc.org": 1,
    "bradford.carl.smith@gmail.com": 2,
    "galak@kernel.crashing.org": 1,
    "hashproduct@gmail.com": 4,
    "richard.musil@st.com": 1,
    "slamb@slamb.org": 2,
    "hager@cs.umu.se": 7,
    "josh@freedesktop.org": 8,
    "sfr@canb.auug.org.au": 2,
    "greg@kroah.com": 2,
    "m@fritschy.de": 1,
    "matled@gmx.net": 58,
    "alecsk@gmail.com": 4,
    "andy@aeruder.net": 19,
    "J.Sixt@eudaptics.com": 2,
    "raa@limbo.localdomain": 2,
    "cj@vdbonline.com": 1,
    "skimo@liacs.nl": 9,
    "hacker@klever.net": 2,
    "alexandre@peadrop.com": 1,
    "jeff@ocjtech.us": 2,
    "dmo@roaringpenguin.com": 1,
    "shausman@trolltech.com": 56,
    "bsergean@gmail.com": 1,
    "aneesh.kumar@gmail.com": 35,
    "Kevin.Green@morganstanley.com": 1,
    "michael@ellerman.id.au": 2,
    "el@prans.net": 1,
    "milli@acmeps.com": 1,
    "mmelchior@xs4all.nl": 2,
    "junkio@cox.net": 4167,
    "bosch@gnat.com": 2,
    "hoegsberg@gmail.com": 1,
    "jfj@freemail.gr": 1,
    "foom@fuhm.net": 1,
    "danahow@gmail.com": 9,
    "ferdy@gentoo.org": 5,
    "springl-git@bfw-online.de": 1,
    "paolo.bonzini@lu.unisi.ch": 5,
    "tali@admingilde.org": 28,
    "mst@dev.mellanox.co.il": 4,
    "hausmann@kde.org": 72,
    "castet.matthieu@free.fr": 1,
    "junio@twinsun.com": 8,
    "rc@rc0.org.uk": 2,
    "apw@us.ibm.com": 3,
    "bfields@fieldses.org": 24,
    "safari-kernel@safari.iki.fi": 1,
    "hirofumi@mail.parknet.co.jp": 2,
    "tomash.brechko@gmail.com": 1,
    "yoshfuji@linux-ipv6.org": 6,
    "how@deathvalley.cswitch.com": 1,
    "scop@xemacs.org": 3,
    "zedek@gnu.org": 3,
    "francis@daoine.org": 9,
    "hpa@zytor.com": 19,
    "leoli@freescale.com": 2,
    "chrisw@sous-sol.org": 2,
    "raa@steel.home": 1,
    "avi@qumranet.com": 2,
    "schlotter@users.sourceforge.net": 2,
    "tutufan@gmail.com": 5,
    "mdpoole@troilus.org": 1,
    "roland@digitalvampire.org": 1,
    "zvpunry@zvpunry.de": 4,
    "corecode@fs.ei.tum.de": 5,
    "ejr@EECS.Berkeley.EDU": 19,
    "tommi.kyntola@ray.fi": 1,
    "jp3@quantumfyre.co.uk": 3,
    "mst@mellanox.co.il": 5,
    "dotanb@dev.mellanox.co.il": 1,
    "muks@mukund.org": 1,
    "mdw@distorted.org.uk": 21,
    "tom.prince@ualberta.net": 6,
    "torvalds@osdl.org": 276,
    "zeisberg@informatik.uni-freiburg.de": 10,
    "cw@f00f.org": 1,
    "siprbaum@stud.informatik.uni-erlangen.de": 2,
    "dwm@bebe.enoyolf.org": 1,
    "bob@proulx.com": 1,
    "j-r@online.de": 7,
    "sgrimm@sgrimm-mbp.local": 1,
    "martin@catalyst.net.nz": 66,
    "sashak@voltaire.com": 9,
    "robfitz@273k.net": 25,
    "terje@bjerkseth.org": 1,
    "Josef.Weidendorfer@gmx.de": 22,
    "hanwen@xs4all.nl": 2,
    "Peter.B.Baumann@stud.informatik.uni-erlangen.de": 1,
    "iarenuno@eteo.mondragon.edu": 1,
    "chris@syntacticsugar.org": 1,
    "rob@codeweavers.com": 7,
    "teanropo@jyu.fi": 1,
    "jaharkes@cs.cmu.edu": 4,
    "froese@gmx.de": 6,
    "dennis@stosberg.net": 31,
    "kha@yoghurt.hemma.treskal.com": 2,
    "markus.amsler@oribi.org": 1,
    "matthew@wil.cx": 1,
    "junio@hera.kernel.org": 2,
    "ryan@michonline.com": 43,
    "fbuihuu@gmail.com": 1,
    "alan@chandlerfamily.org.uk": 3,
    "fork0@t-online.de": 5,
    "vagabon.xyz@gmail.com": 10,
    "ahaas@airmail.net": 1,
    "hskinnemoen@atmel.com": 1,
    "tilman@code-monkey.de": 3,
    "rientjes@google.com": 18,
    "rutger@nospam.com": 2,
    "Uwe_Zeisberger@digi.com": 2,
    "dsd@gentoo.org": 1,
    "josht@us.ibm.com": 3,
    "alp@atoker.com": 9,
    "sf@b-i-t.de": 5,
    "cjhaga@fys.uio.no": 2,
    "linux@horizon.net": 1,
    "maan@systemlinux.org": 2,
    "dwmw2@infradead.org": 3,
    "octo@verplant.org": 10,
    "freku045@student.liu.se": 64,
    "eggert@CS.UCLA.EDU": 1,
    "pdarga@umich.edu": 1,
    "nickh@reactrix.com": 52,
    "Salikh.Zakirov@Intel.com": 1,
    "kay.sievers@suse.de": 139,
    "pdmef@gmx.net": 1,
    "rda@google.com": 4,
    "catalin.marinas@gmail.com": 2,
    "BjEngelmann@gmx.de": 2,
    "elrond+kernel.org@samba-tng.org": 1,
    "benc@hawaga.org.uk": 1,
    "martyn@catalyst.net.nz": 3,
    "huw@codeweavers.com": 1,
    "serue@us.ibm.com": 7,
    "hvr@gnu.org": 1,
    "mike@codeweavers.com": 8,
    "git@tux.tmfweb.nl": 1,
    "radford@blackbean.org": 3,
    "markhollomon@comcast.net": 1,
    "olh@suse.de": 1,
    "mj@ucw.cz": 2,
    "paul@clubi.ie": 1,
    "kent@lysator.liu.se": 1,
    "cbiesinger@web.de": 1,
    "matt@draisey.ca": 1,
    "mostrows@watson.ibm.com": 3,
    "exon@op5.se": 17,
    "jenglish@flightlab.com": 1,
    "ellson@research.att.com": 1,
    "sam@ravnborg.org": 1,
    "matlads@dsmagic.com": 1,
    "mailing-lists.git@rawuncut.elitemail.org": 19,
    "junkio@twinsun.com": 2,
    "tv@inoi.fi": 1,
    "jandres@gmx.net": 1,
    "lan@ac-sw.com": 2,
    "jeffh@ActiveState.com": 1,
    "paul@serice.net": 2,
    "paul@briny.ondioline.org": 2,
    "frank@tuxrocks.com": 1,
    "ralf@linux-mips.org": 2,
    "kevin@desertsol.com": 4,
    "kai.ruemmler@gmx.net": 7,
    "thomas@matysik.co.nz": 2,
    "chrisw@osdl.org": 6,
    "ya@slamail.org": 7,
    "c.shoemaker@cox.net": 10,
    "axboe@suse.de": 1,
    "Kalle.Valo@iki.fi": 3,
    "chris@absolutegiganten.org": 4,
    "blaisorblade@yahoo.it": 2,
    "hpa@tazenda.sc.orionmulti.com": 11,
    "han@mijncomputer.nl": 1,
    "hpa@smyrno.hos.anvin.org": 13,
    "hpa@trantor.hos.anvin.org": 1,
    "hpa@bonde.sc.orionmulti.com": 3,
    "oxygene@studentenbude.ath.cx": 3,
    "robert.oo.watson@gmail.com": 1,
    "jdl@freescale.org": 1,
    "robert@mpe.mpg.de": 1,
    "herbert@gondor.apana.org.au": 1,
    "qhuo@mayhq.co.uk": 1,
    "lars.doelle@on-line.de": 1,
    "apw@rossby.metr.ou.edu": 3,
    "tv@debian.org": 5,
    "ejr@cs.berkeley.edu": 6,
    "mcostalba@yahoo.it": 3,
    "martin@ng.eduforge.org": 3,
    "kris.shannon@gmail.com": 1,
    "glouis@dynamicro.ca": 1,
    "mattdraisey@sympatico.ca": 1,
    "braddr@puremagic.com": 6,
    "James.Bottomley@SteelEye.com": 7,
    "kay@mam.(none)": 4,
    "mars@nomi.cz": 1,
    "tss@iki.fi": 1,
    "holger@my-eitzenberger.de": 3,
    "paulus@dorrigo.(none)": 11,
    "torvalds@g5.osdl.org": 122,
    "darrint@progeny.com": 1,
    "jan@mind.be": 1,
    "torvalds@evo.osdl.org": 3,
    "bryanlarsen@yahoo.com": 1,
    "bryan.larsen@gmail.com": 3,
    "smurf@kiste.(none)": 13,
    "torvalds@ppc970.osdl.org": 439,
    "mrallen1@yahoo.com": 3,
    "paulus@pogo.(none)": 1,
    "mikukkon@miku.homelinux.net": 1,
    "holmsand@gmail.com": 1,
    "takis@lumumba.luc.ac.be": 1,
    "Sven.Verdoolaege@cs.kuleuven.ac.be": 1,
    "mcguire@crsr.net": 4,
    "jason.mcmullan@timesys.com": 2,
    "tihirvon@ee.oulu.fi": 1,
    "jon@blackcubes.dyndns.org": 1,
    "aga@supplehost.com": 1,
    "sithglan@stud.uni-erlangen.de": 7,
    "dmeybohmlkml@bellsouth.net": 1,
    "jgarzik@pobox.com": 1,
    "david@dgreaves.com": 13,
    "snake@penza-gsm.ru": 2,
    "seb@highlab.com": 1,
    "bgerst@didntduck.org": 1,
    "zbrown@tumblerings.org": 1,
    "kay.sievers@vrfy.org": 4,
    "aia21@cam.ac.uk": 2,
    "gal@uci.edu": 2,
    "git@chrisli.org": 2,
    "zw@superlucidity.net": 3,
    "torvalds@ppc970.osdl.org.(none)": 9,
    "xpasky@machine": 1
  }
}